Rinu Thomas Data Analysis Portfolio – Assignment #5: CDC Data Exercise
…
# Combine into a tibble
synthetic_data <- tibble(
  Year = Year,
  Race = Race,
  Sex = Sex,
  LifeExpectancy = LifeExpectancy,
  DeathRate = DeathRate
)

View synthetic data:

print(synthetic_data)

# A tibble: 100 × 5
    Year Race  Sex    LifeExpectancy DeathRate
   <int> <chr> <chr>           <dbl>     <dbl>
 1  1993 Black Female           73.6      1016
 2  1994 Black Male             75.5       989
 3  1995 Black Male             74.5       942
 4  1996 White Female           74.3       966
 5  1997 Black Male             73.1       938
 6  1998 White Male             74.9       936
 7  1999 White Female           73.4       926
 8  2000 White Female           71.7       932
 9  2001 Black Female           74.2      1000
10  2002 Black Male             76.8       948
# ℹ 90 more rows
…
